@startuml kubernetes

footer Kubernetes Plant-UML
scale max 1024 width

skinparam nodesep 10
skinparam ranksep 10

' Kubernetes
!define KubernetesPuml https://raw.githubusercontent.com/dcasati/kubernetes-PlantUML/master/dist

!includeurl KubernetesPuml/kubernetes_Common.puml
!includeurl KubernetesPuml/kubernetes_Context.puml
!includeurl KubernetesPuml/kubernetes_Simplified.puml

!includeurl KubernetesPuml/OSS/KubernetesSvc.puml
!includeurl KubernetesPuml/OSS/KubernetesIng.puml
!includeurl KubernetesPuml/OSS/KubernetesPod.puml
!includeurl KubernetesPuml/OSS/KubernetesRs.puml
!includeurl KubernetesPuml/OSS/KubernetesDeploy.puml
!includeurl KubernetesPuml/OSS/KubernetesHpa.puml

skinparam defaultTextAlignment center

actor "User" as userAlias
left to right direction



' Kubernetes Components
Cluster_Boundary(cluster, "Kubernetes Cluster") {
    Namespace_Boundary(ns, "Back End") {
        KubernetesIng(ingress, "wikifunctions.tld", "")
        KubernetesSvc(mysql_svc, "mysql", "")
        KubernetesSvc(web_svc, "wikimedia-web", "")
        KubernetesSvc(php_svc, "wikimedia", "")
        KubernetesSvc(orchestrator_svc, "function-orchestrator", "")
        KubernetesSvc(evaluator_svc, "function-evaluator", "")
        
        KubernetesPod(mysql_pod, "mysql", "")
        KubernetesPod(web_pod, "wikimedia-web", "")
        KubernetesPod(php_pod, "wikimedia", "")
        KubernetesPod(runner_pod, "wikimedia-jobrunner", "")
        KubernetesPod(evaluator_pod, "function-evaluator", "")
        KubernetesPod(orchestrator_pod, "function-orchestrator", "")

    }
}

'AddRelTag("uses", $textColor="black", $lineColor="orange", $lineStyle=DashedLine())
'AddRelTag("backup", $textColor="orange", $lineColor="orange", $lineStyle = DashedLine())
Rel(userAlias,ingress," ")
Rel(ingress,web_svc," ")

Rel(web_svc, web_pod, " ")
Rel(mysql_svc, mysql_pod, " ")
Rel(php_svc, php_pod, " ")
Rel(orchestrator_svc, orchestrator_pod, " ")
Rel(evaluator_svc, evaluator_pod, " ")

Rel_(web_pod, php_svc, " ", ".LEFT.>")
'Rel_U(web_pod, php_svc, " ")
'Rel_U(web_pod, php_svc, " ")
Rel_U(php_pod, mysql_svc, " ")


'Rel(svc,pod1," ")
'Rel(svc,pod2," ")
'Rel(svc,pod3," ")

'Rel_U(rs,pod1," ")
'Rel_U(rs,pod2," ")
'Rel_U(rs,pod3," ")

'Rel_U(deploy,rs, " ")
'Rel_U(hpa,deploy, " ")

@enduml